{
	"info": {
		"_postman_id": "8c4d2823-3adb-4366-9932-d66d083c05c2",
		"name": "SD API Auth Reg",
		"description": "Solicitudes para el API del servidor.",
		"schema": "https://schema.getpostman.com/json/collection/v2.1.0/collection.json"
	},
	"item": [
		{
			"name": "/api/auth",
			"request": {
				"auth": {
					"type": "bearer",
					"bearer": [
						{
							"key": "token",
							"value": "eyJ0eXAiOiJKV1QiLCJhbGciOiJIUzI1NiJ9.eyJpYXQiOjE2NDg4MjE5MDgsImV4cCI6MTY0OTQyNjcwOH0.86zig7g-dduAzDPGFTHkruGjqJdd85HMK9qBzEam2QQ",
							"type": "string"
						}
					]
				},
				"method": "GET",
				"header": [],
				"url": {
					"raw": "https://localhost:4000/api/auth",
					"protocol": "https",
					"host": [
						"localhost"
					],
					"port": "4000",
					"path": [
						"api",
						"auth"
					]
				},
				"description": "Obtenemos todos los usuarios registrados en el sistema. Mostramos versión reducida de GET /api/user."
			},
			"response": []
		},
		{
			"name": "/api/user",
			"request": {
				"method": "GET",
				"header": [],
				"url": {
					"raw": "https://localhost:4000/api/user/",
					"protocol": "https",
					"host": [
						"localhost"
					],
					"port": "4000",
					"path": [
						"api",
						"user",
						""
					]
				},
				"description": "Obtenemos todos los usuarios registrados en el sistema."
			},
			"response": []
		},
		{
			"name": "/api/user/{id}",
			"request": {
				"method": "GET",
				"header": [],
				"url": {
					"raw": "https://localhost:4000/api/user/6248821f1807fd18617105b4",
					"protocol": "https",
					"host": [
						"localhost"
					],
					"port": "4000",
					"path": [
						"api",
						"user",
						"6248821f1807fd18617105b4"
					]
				},
				"description": "Obtenemos el usuario indicado en {id}."
			},
			"response": []
		},
		{
			"name": "/api/user",
			"protocolProfileBehavior": {
				"disabledSystemHeaders": {}
			},
			"request": {
				"method": "POST",
				"header": [],
				"body": {
					"mode": "raw",
					"raw": "{\n    \"name\": \"Gustavo Sevilla\",\n    \"email\": \"gsevilla@dtic.ua.es\",\n    \"pass\": \"C0ntra\",\n    \"edad\": 29,\n    \"empleo\": \"Conserje\"\n}",
					"options": {
						"raw": {
							"language": "json"
						}
					}
				},
				"url": {
					"raw": "https://localhost:4000/api/user/",
					"protocol": "https",
					"host": [
						"localhost"
					],
					"port": "4000",
					"path": [
						"api",
						"user",
						""
					]
				},
				"description": "Registramos un nuevo usuario con toda su información."
			},
			"response": []
		},
		{
			"name": "/api/auth",
			"protocolProfileBehavior": {
				"disabledSystemHeaders": {}
			},
			"request": {
				"method": "POST",
				"header": [],
				"body": {
					"mode": "raw",
					"raw": "{\n    \"email\": \"pmacia@dtic.ua.es\",\n    \"pass\": \"1234\"\n}",
					"options": {
						"raw": {
							"language": "json"
						}
					}
				},
				"url": {
					"raw": "https://localhost:4000/api/auth/",
					"protocol": "https",
					"host": [
						"localhost"
					],
					"port": "4000",
					"path": [
						"api",
						"auth",
						""
					]
				},
				"description": "Realiza una identificación o login (signIn) y devuelve un token válido."
			},
			"response": []
		},
		{
			"name": "/api/reg",
			"protocolProfileBehavior": {
				"disabledSystemHeaders": {}
			},
			"request": {
				"method": "POST",
				"header": [],
				"body": {
					"mode": "raw",
					"raw": "{\n\"name\": \"Gerardo Gómez\",\n\"email\": \"ggomez@dtic.ua.es\",\n\"pass\": \"gerardo\"\n}",
					"options": {
						"raw": {
							"language": "json"
						}
					}
				},
				"url": {
					"raw": "https://localhost:4000/api/reg/",
					"protocol": "https",
					"host": [
						"localhost"
					],
					"port": "4000",
					"path": [
						"api",
						"reg",
						""
					]
				},
				"description": "Realiza un registro mínimo (signUp) de un usuario y devuelve un token válido."
			},
			"response": []
		},
		{
			"name": "/api/user/{id}",
			"request": {
				"method": "PUT",
				"header": [],
				"body": {
					"mode": "raw",
					"raw": "{\n    \"name\": \"Cristóbal González\",\n    \"email\": \"cristobal_gonzalez@ua.es\",\n    \"edad\": 45\n}",
					"options": {
						"raw": {
							"language": "json"
						}
					}
				},
				"url": {
					"raw": "https://localhost:4000/api/user/6240ebff60654e8b6b3f42c1",
					"protocol": "https",
					"host": [
						"localhost"
					],
					"port": "4000",
					"path": [
						"api",
						"user",
						"6240ebff60654e8b6b3f42c1"
					]
				},
				"description": "Modificamos el usuario {id}."
			},
			"response": []
		},
		{
			"name": "/api/user/{id}",
			"request": {
				"method": "DELETE",
				"header": [],
				"body": {
					"mode": "raw",
					"raw": "",
					"options": {
						"raw": {
							"language": "json"
						}
					}
				},
				"url": {
					"raw": "https://localhost:4000/api/user/62411ad52c8e20a6ec8af05a",
					"protocol": "https",
					"host": [
						"localhost"
					],
					"port": "4000",
					"path": [
						"api",
						"user",
						"62411ad52c8e20a6ec8af05a"
					]
				},
				"description": "Eliminamos el usuario {id}."
			},
			"response": []
		},
		{
			"name": "/api/auth/me",
			"request": {
				"auth": {
					"type": "bearer",
					"bearer": [
						{
							"key": "token",
							"value": "eyJ0eXAiOiJKV1QiLCJhbGciOiJIUzI1NiJ9.eyJzdWIiOiI2MjQxMjg5OTA0MGM4OWFjNmM2YjExYTYiLCJpYXQiOjE2NDg5MjI0OTUsImV4cCI6MTY0OTUyNzI5NX0.eQ0xHk9Cr22gaL-drFpx0FubUUfH3asJCk_ZYSUlnY4",
							"type": "string"
						}
					]
				},
				"method": "GET",
				"header": [],
				"url": {
					"raw": "https://localhost:4000/api/auth/me",
					"protocol": "https",
					"host": [
						"localhost"
					],
					"port": "4000",
					"path": [
						"api",
						"auth",
						"me"
					]
				},
				"description": "Obtenemos el usuario a partir de un token válido."
			},
			"response": []
		}
	]
}
